…
city_state_log =
  homocide_df %>%
  nest(data = -city_state) %>%
  mutate(log_models = map(data, ~glm(crime ~ victim_age + victim_race + victim_sex, family = binomial(), data = .))) %>%
  mutate(results = (map(log_models, broom_tidy_function ))) %>%
  select(city_state, results) %>%
    unnest(cols = results)

city_state_log
```

    ## # A tibble: 47 × 6
    ##    city_state      term               log_OR    OR   LCI   UCI
    ##    <chr>           <chr>               <dbl> <dbl> <dbl> <dbl>
    ##  1 Albuquerque, NM victim_sexMale -0.570     0.566 0.266  1.20
    ##  2 Atlanta, GA     victim_sexMale -0.0000771 1.00  0.683  1.46
    ##  3 Baltimore, MD   victim_sexMale  0.854     2.35  1.79   3.08
    ##  4 Baton Rouge, LA victim_sexMale  0.964     2.62  1.44   4.78
    ##  5 Birmingham, AL  victim_sexMale  0.139     1.15  0.759  1.74
    ##  6 Boston, MA      victim_sexMale  0.395     1.48  0.784  2.81
    ##  7 Buffalo, NY     victim_sexMale  0.653     1.92  1.07   3.45
    ##  8 Charlotte, NC   victim_sexMale  0.123     1.13  0.713  1.80
    ##  9 Chicago, IL     victim_sexMale  0.891     2.44  2.00   2.98
    ## 10 Cincinnati, OH  victim_sexMale  0.917     2.50  1.48   4.24
    ## # … with 37 more rows
    ## # ℹ Use `print(n = ...)` to see more rows
…
``` r
bwt_df =
  tibble::rowid_to_column(bwt_df, "id")

bwt_df
```

    ## # A tibble: 4,342 × 21
    ##       id babysex bhead blength   bwt delwt fincome frace gaweeks malform menar…¹
    ##    <int> <fct>   <dbl>   <dbl> <dbl> <dbl>   <dbl> <fct>   <dbl> <lgl>     <dbl>
    ##  1     1 female     34      51  3629   177      35 white    39.9 FALSE        13
    ##  2     2 male       34      48  3062   156      65 black    25.9 FALSE        14
    ##  3     3 female     36      50  3345   148      85 white    39.9 FALSE        12
    ##  4     4 male       34      52  3062   157      55 white    40   FALSE        14
    ##  5     5 female     34      52  3374   156       5 white    41.6 FALSE        13
    ##  6     6 male       33      52  3374   129      55 white    40.7 FALSE        12
    ##  7     7 female     33      46  2523   126      96 black    40.3 FALSE        14
    ##  8     8 female     33      49  2778   140       5 white    37.4 FALSE        12
    ##  9     9 male       36      52  3515   146      85 white    40.3 FALSE        11
    ## 10    10 male       33      50  3459   169      75 black    40.7 FALSE        12
    ## # … with 4,332 more rows, 10 more variables: mheight <dbl>, momage <dbl>,
    ## #   mrace <fct>, parity <dbl>, pnumlbw <dbl>, pnumsga <dbl>, ppbmi <dbl>,
    ## #   ppwt <dbl>, smoken <dbl>, wtgain <dbl>, and abbreviated variable name
    ## #   ¹​menarche
    ## # ℹ Use `print(n = ...)` to see more rows, and `colnames()` to see all variable names
…
bwt_df_test =
 bwt_df_test  %>%
  select(-id)


bwt_df_train =
  bwt_df_train %>%
    select(-id)

bwt_df_train
```

    ## # A tibble: 200 × 20
    ##    babysex bhead blength   bwt delwt fincome frace gaweeks malform menarche
    ##    <fct>   <dbl>   <dbl> <dbl> <dbl>   <dbl> <fct>   <dbl> <lgl>      <dbl>
    ##  1 male       35      51  3062   162      25 black    39   FALSE         14
    ##  2 female     33      50  2920   168      25 black    43.7 FALSE         12
    ##  3 male       35      51  3430   140      35 white    40.6 FALSE         11
    ##  4 female     36      46  2608   120      85 white    41.1 FALSE         13
    ##  5 male       35      46  3203   126      55 white    39   FALSE         12
    ##  6 female     34      50  3232   155      25 white    40   FALSE         13
    ##  7 female     32      48  2608   138      85 black    43   FALSE         11
    ##  8 male       34      48  2920   143      65 black    39   FALSE         12
    ##  9 female     34      48  3175   139       5 black    37.1 FALSE         12
    ## 10 female     35      50  3090   174      15 white    42   FALSE         13
    ## # … with 190 more rows, and 10 more variables: mheight <dbl>, momage <dbl>,
    ## #   mrace <fct>, parity <dbl>, pnumlbw <dbl>, pnumsga <dbl>, ppbmi <dbl>,
    ## #   ppwt <dbl>, smoken <dbl>, wtgain <dbl>
    ## # ℹ Use `print(n = ...)` to see more rows, and `colnames()` to see all variable names

``` r
bwt_df_test
```

    ## # A tibble: 4,142 × 20
    ##    babysex bhead blength   bwt delwt fincome frace gaweeks malform menarche
    ##    <fct>   <dbl>   <dbl> <dbl> <dbl>   <dbl> <fct>   <dbl> <lgl>      <dbl>
    ##  1 female     34      51  3629   177      35 white    39.9 FALSE         13
    ##  2 male       34      48  3062   156      65 black    25.9 FALSE         14
    ##  3 female     36      50  3345   148      85 white    39.9 FALSE         12
    ##  4 male       34      52  3062   157      55 white    40   FALSE         14
    ##  5 female     34      52  3374   156       5 white    41.6 FALSE         13
    ##  6 male       33      52  3374   129      55 white    40.7 FALSE         12
    ##  7 female     33      46  2523   126      96 black    40.3 FALSE         14
    ##  8 female     33      49  2778   140       5 white    37.4 FALSE         12
    ##  9 male       36      52  3515   146      85 white    40.3 FALSE         11
    ## 10 male       33      50  3459   169      75 black    40.7 FALSE         12
    ## # … with 4,132 more rows, and 10 more variables: mheight <dbl>, momage <dbl>,
    ## #   mrace <fct>, parity <dbl>, pnumlbw <dbl>, pnumsga <dbl>, ppbmi <dbl>,
    ## #   ppwt <dbl>, smoken <dbl>, wtgain <dbl>
    ## # ℹ Use `print(n = ...)` to see more rows, and `colnames()` to see all variable names
…
